[0.051]1cec00004003239331e
[0.052]1cec00004003339331e
[0.053]1cec00004003439331e
[0.053]1cec00004003539331e
[0.054]1cec00004003639331e
[0.055]1cec00004003739331e
[0.055]1cec00004003839331e
[0.056]1cec00004003939331e
[0.057]1cec00004004139331e
[0.057]1cec00004004239331e
[0.058]1cec00004004339331e
[0.059]1cec00004004439331e
[0.059]1cec00004004539331e
[0.060]1cec0000400463933E9
[0.051]1cec00004003239331e
[0.052]1cec00004003339331e
[0.053]1cec00004003439331e
[0.053]1cec00004003539331e
[0.054]1cec00004003639331e
[0.055]1cec00004003739331e
[0.055]1cec00004003839331e
[0.056]1cec00004003939331e
[0.057]1cec00004004139331e
[0.057]1cec00004004239331e
[0.058]1cec00004004339331e
[0.059]1cec00004004439331e
[0.059]1cec00004004539331e
[0.060]1cec0000400463933E9
[0.051]1cec00004003239331e
[0.052]1cec00004003339331e
[0.053]1cec00004003439331e
[0.053]1cec00004003539331e
[0.054]1cec00004003639331e
[0.055]1cec00004003739331e
[0.055]1cec00004003839331e
[0.056]1cec00004003939331e
[0.057]1cec00004004139331e
[0.057]1cec00004004239331e
[0.058]1cec00004004339331e
[0.059]1cec00004004439331e
[0.059]1cec00004004539331e
[0.060]1cec0000400463933E9
[0.051]1cec00004003239331e
[0.052]1cec00004003339331e
[0.053]1cec00004003439331e
[0.053]1cec00004003539331e
[0.054]1cec00004003639331e
[0.055]1cec00004003739331e
[0.055]1cec00004003839331e
[0.056]1cec00004003939331e
[0.057]1cec00004004139331e
[0.057]1cec00004004239331e
[0.058]1cec00004004339331e
[0.059]1cec00004004439331e
[0.059]1cec00004004539331e
[0.060]1cec0000400463933E9
[0.051]1cec00004003239331e
[0.052]1cec00004003339331e
[0.053]1cec00004003439331e
[0.053]1cec00004003539331e
[0.054]1cec00004003639331e
[0.055]1cec00004003739331e
[0.055]1cec00004003839331e
[0.056]1cec00004003939331e
[0.057]1cec00004004139331e
[0.057]1cec00004004239331e
[0.058]1cec00004004339331e
[0.059]1cec00004004439331e
[0.059]1cec00004004539331e
[0.060]1cec0000400463933E9
[0.051]1cec00004003239331e
[0.052]1cec00004003339331e
[0.053]1cec00004003439331e
[0.053]1cec00004003539331e
[0.054]1cec00004003639331e
[0.055]1cec00004003739331e
[0.055]1cec00004003839331e
[0.056]1cec00004003939331e
[0.057]1cec00004004139331e
[0.057]1cec00004004239331e
[0.058]1cec00004004339331e
[0.059]1cec00004004439331e
[0.059]1cec00004004539331e
[0.060]1cec0000400463933E9
[0.051]1cec00004003239331e
[0.052]1cec00004003339331e
[0.053]1cec00004003439331e
[0.053]1cec00004003539331e
[0.054]1cec00004003639331e
[0.055]1cec00004003739331e
[0.055]1cec00004003839331e
[0.056]1cec00004003939331e
[0.057]1cec00004004139331e
[0.057]1cec00004004239331e
[0.058]1cec00004004339331e
[0.059]1cec00004004439331e
[0.059]1cec00004004539331e
[0.060]1cec0000400463933E9
[0.051]1cec00004003239331e
[0.052]1cec00004003339331e
[0.053]1cec00004003439331e
[0.053]1cec00004003539331e
[0.054]1cec00004003639331e
[0.055]1cec00004003739331e
[0.055]1cec00004003839331e
[0.056]1cec00004003939331e
[0.057]1cec00004004139331e
[0.057]1cec00004004239331e
[0.058]1cec00004004339331e
[0.059]1cec00004004439331e
[0.059]1cec00004004539331e
[0.060]1cec0000400463933E9
[0.051]1cec00004003239331e
[0.052]1cec00004003339331e
[0.053]1cec00004003439331e
[0.053]1cec00004003539331e
[0.054]1cec00004003639331e
[0.055]1cec00004003739331e
[0.055]1cec00004003839331e
[0.056]1cec00004003939331e
[0.057]1cec00004004139331e
[0.057]1cec00004004239331e
[0.058]1cec00004004339331e
[0.059]1cec00004004439331e
[0.059]1cec00004004539331e
[0.060]1cec0000400463933E9
[0.051]1cec00004003239331e
[0.052]1cec00004003339331e
[0.053]1cec00004003439331e
[0.053]1cec00004003539331e
[0.054]1cec00004003639331e
[0.055]1cec00004003739331e
[0.055]1cec00004003839331e
[0.056]1cec00004003939331e
[0.057]1cec00004004139331e
[0.057]1cec00004004239331e
[0.058]1cec00004004339331e
[0.059]1cec00004004439331e
[0.059]1cec00004004539331e
[0.060]1cec0000400463933E9
